%!PS-Adobe-3.0 EPSF-3.0
%%Title: ../doc/Figure5a.eps
%%Creator: matplotlib version 2.1.0, http://matplotlib.org/
%%CreationDate: Mon Jan  1 11:37:55 2018
%%Orientation: portrait
%%BoundingBox: 52 175 559 616
%%EndComments
%%BeginProlog
/mpldict 8 dict def
mpldict begin
/m { moveto } bind def
/l { lineto } bind def
/r { rlineto } bind def
/c { curveto } bind def
/cl { closepath } bind def
/box {
m
1 index 0 r
0 exch r
neg 0 r
cl
} bind def
/clipbox {
box
clip
newpath
} bind def
%!PS-Adobe-3.0 Resource-Font
%%Title: DejaVu Sans
%%Copyright: Copyright (c) 2003 by Bitstream, Inc. All Rights Reserved. Copyright (c) 2006 by Tavmjong Bah. All Rights Reserved. DejaVu changes are in public domain 
%%Creator: Converted from TrueType to type 3 by PPR
25 dict begin
/_d{bind def}bind def
/_m{moveto}_d
/_l{lineto}_d
/_cl{closepath eofill}_d
/_c{curveto}_d
/_sc{7 -1 roll{setcachedevice}{pop pop pop pop pop pop}ifelse}_d
/_e{exec}_d
/FontName /DejaVuSans def
/PaintType 0 def
/FontMatrix[.001 0 0 .001 0 0]def
/FontBBox[-1021 -463 1793 1232]def
/FontType 3 def
/Encoding [ /space /parenleft /parenright /hyphen /period /zero /one /two /four /five /six /seven /eight /nine /B /S /T /a /b /c /d /e /g /i /m /n /p /r /s /t ] def
/FontInfo 10 dict dup begin
/FamilyName (DejaVu Sans) def
/FullName (DejaVu Sans) def
/Notice (Copyright (c) 2003 by Bitstream, Inc. All Rights Reserved. Copyright (c) 2006 by Tavmjong Bah. All Rights Reserved. DejaVu changes are in public domain ) def
/Weight (Book) def
/Version (Version 2.35) def
/ItalicAngle 0.0 def
/isFixedPitch false def
/UnderlinePosition -130 def
/UnderlineThickness 90 def
end readonly def
/CharStrings 31 dict dup begin
/.notdef 0 def
/space{318 0 0 0 0 0 _sc
}_d
/parenleft{390 0 86 -131 310 759 _sc
310 759 _m
266 683 234 609 213 536 _c
191 463 181 389 181 314 _c
181 238 191 164 213 91 _c
234 17 266 -56 310 -131 _c
232 -131 _l
183 -54 146 20 122 94 _c
98 168 86 241 86 314 _c
86 386 98 459 122 533 _c
146 607 182 682 232 759 _c
310 759 _l
_cl}_d
/parenright{390 0 80 -131 304 759 _sc
80 759 _m
158 759 _l
206 682 243 607 267 533 _c
291 459 304 386 304 314 _c
304 241 291 168 267 94 _c
243 20 206 -54 158 -131 _c
80 -131 _l
123 -56 155 17 177 91 _c
198 164 209 238 209 314 _c
209 389 198 463 177 536 _c
155 609 123 683 80 759 _c
_cl}_d
/hyphen{361 0 49 234 312 314 _sc
49 314 _m
312 314 _l
312 234 _l
49 234 _l
49 314 _l
_cl}_d
/period{318 0 107 0 210 124 _sc
107 124 _m
210 124 _l
210 0 _l
107 0 _l
107 124 _l
_cl}_d
/zero{636 0 66 -13 570 742 _sc
318 664 _m
267 664 229 639 203 589 _c
177 539 165 464 165 364 _c
165 264 177 189 203 139 _c
229 89 267 64 318 64 _c
369 64 407 89 433 139 _c
458 189 471 264 471 364 _c
471 464 458 539 433 589 _c
407 639 369 664 318 664 _c
318 742 _m
399 742 461 709 505 645 _c
548 580 570 486 570 364 _c
570 241 548 147 505 83 _c
461 19 399 -13 318 -13 _c
236 -13 173 19 130 83 _c
87 147 66 241 66 364 _c
66 486 87 580 130 645 _c
173 709 236 742 318 742 _c
_cl}_d
/one{636 0 110 0 544 729 _sc
124 83 _m
285 83 _l
285 639 _l
110 604 _l
110 694 _l
284 729 _l
383 729 _l
383 83 _l
544 83 _l
544 0 _l
124 0 _l
124 83 _l
_cl}_d
/two{{636 0 73 0 536 742 _sc
192 83 _m
536 83 _l
536 0 _l
73 0 _l
73 83 _l
110 121 161 173 226 239 _c
290 304 331 346 348 365 _c
380 400 402 430 414 455 _c
426 479 433 504 433 528 _c
433 566 419 598 392 622 _c
365 646 330 659 286 659 _c
255 659 222 653 188 643 _c
154 632 117 616 78 594 _c
78 694 _l
118 710 155 722 189 730 _c
223 738 255 742 284 742 _c
}_e{359 742 419 723 464 685 _c
509 647 532 597 532 534 _c
532 504 526 475 515 449 _c
504 422 484 390 454 354 _c
446 344 420 317 376 272 _c
332 227 271 164 192 83 _c
_cl}_e}_d
/four{636 0 49 0 580 729 _sc
378 643 _m
129 254 _l
378 254 _l
378 643 _l
352 729 _m
476 729 _l
476 254 _l
580 254 _l
580 172 _l
476 172 _l
476 0 _l
378 0 _l
378 172 _l
49 172 _l
49 267 _l
352 729 _l
_cl}_d
/five{{636 0 77 -13 549 729 _sc
108 729 _m
495 729 _l
495 646 _l
198 646 _l
198 467 _l
212 472 227 476 241 478 _c
255 480 270 482 284 482 _c
365 482 429 459 477 415 _c
525 370 549 310 549 234 _c
549 155 524 94 475 51 _c
426 8 357 -13 269 -13 _c
238 -13 207 -10 175 -6 _c
143 -1 111 6 77 17 _c
77 116 _l
106 100 136 88 168 80 _c
199 72 232 69 267 69 _c
}_e{323 69 368 83 401 113 _c
433 143 450 183 450 234 _c
450 284 433 324 401 354 _c
368 384 323 399 267 399 _c
241 399 214 396 188 390 _c
162 384 135 375 108 363 _c
108 729 _l
_cl}_e}_d
/six{{636 0 70 -13 573 742 _sc
330 404 _m
286 404 251 388 225 358 _c
199 328 186 286 186 234 _c
186 181 199 139 225 109 _c
251 79 286 64 330 64 _c
374 64 409 79 435 109 _c
461 139 474 181 474 234 _c
474 286 461 328 435 358 _c
409 388 374 404 330 404 _c
526 713 _m
526 623 _l
501 635 476 644 451 650 _c
425 656 400 659 376 659 _c
310 659 260 637 226 593 _c
}_e{192 549 172 482 168 394 _c
187 422 211 444 240 459 _c
269 474 301 482 336 482 _c
409 482 467 459 509 415 _c
551 371 573 310 573 234 _c
573 159 550 99 506 54 _c
462 9 403 -13 330 -13 _c
246 -13 181 19 137 83 _c
92 147 70 241 70 364 _c
70 479 97 571 152 639 _c
206 707 280 742 372 742 _c
396 742 421 739 447 735 _c
472 730 498 723 526 713 _c
_cl}_e}_d
/seven{636 0 82 0 551 729 _sc
82 729 _m
551 729 _l
551 687 _l
286 0 _l
183 0 _l
432 646 _l
82 646 _l
82 729 _l
_cl}_d
/eight{{636 0 68 -13 568 742 _sc
318 346 _m
271 346 234 333 207 308 _c
180 283 167 249 167 205 _c
167 161 180 126 207 101 _c
234 76 271 64 318 64 _c
364 64 401 76 428 102 _c
455 127 469 161 469 205 _c
469 249 455 283 429 308 _c
402 333 365 346 318 346 _c
219 388 _m
177 398 144 418 120 447 _c
96 476 85 511 85 553 _c
85 611 105 657 147 691 _c
188 725 245 742 318 742 _c
}_e{390 742 447 725 489 691 _c
530 657 551 611 551 553 _c
551 511 539 476 515 447 _c
491 418 459 398 417 388 _c
464 377 501 355 528 323 _c
554 291 568 251 568 205 _c
568 134 546 80 503 43 _c
459 5 398 -13 318 -13 _c
237 -13 175 5 132 43 _c
89 80 68 134 68 205 _c
68 251 81 291 108 323 _c
134 355 171 377 219 388 _c
183 544 _m
183 506 194 476 218 455 _c
}_e{242 434 275 424 318 424 _c
360 424 393 434 417 455 _c
441 476 453 506 453 544 _c
453 582 441 611 417 632 _c
393 653 360 664 318 664 _c
275 664 242 653 218 632 _c
194 611 183 582 183 544 _c
_cl}_e}_d
/nine{{636 0 63 -13 566 742 _sc
110 15 _m
110 105 _l
134 93 159 84 185 78 _c
210 72 235 69 260 69 _c
324 69 374 90 408 134 _c
442 178 462 244 468 334 _c
448 306 424 284 396 269 _c
367 254 335 247 300 247 _c
226 247 168 269 126 313 _c
84 357 63 417 63 494 _c
63 568 85 628 129 674 _c
173 719 232 742 306 742 _c
390 742 455 709 499 645 _c
543 580 566 486 566 364 _c
}_e{566 248 538 157 484 89 _c
429 21 356 -13 264 -13 _c
239 -13 214 -10 189 -6 _c
163 -2 137 5 110 15 _c
306 324 _m
350 324 385 339 411 369 _c
437 399 450 441 450 494 _c
450 546 437 588 411 618 _c
385 648 350 664 306 664 _c
262 664 227 648 201 618 _c
175 588 162 546 162 494 _c
162 441 175 399 201 369 _c
227 339 262 324 306 324 _c
_cl}_e}_d
/B{{686 0 98 0 615 729 _sc
197 348 _m
197 81 _l
355 81 _l
408 81 447 92 473 114 _c
498 136 511 169 511 215 _c
511 260 498 293 473 315 _c
447 337 408 348 355 348 _c
197 348 _l
197 648 _m
197 428 _l
343 428 _l
391 428 426 437 450 455 _c
474 473 486 500 486 538 _c
486 574 474 602 450 620 _c
426 638 391 648 343 648 _c
197 648 _l
98 729 _m
350 729 _l
}_e{425 729 483 713 524 682 _c
564 650 585 606 585 549 _c
585 504 574 468 553 442 _c
532 416 502 399 462 393 _c
510 382 548 360 575 327 _c
601 294 615 253 615 204 _c
615 138 592 88 548 53 _c
504 17 441 0 360 0 _c
98 0 _l
98 729 _l
_cl}_e}_d
/S{{635 0 66 -13 579 742 _sc
535 705 _m
535 609 _l
497 627 462 640 429 649 _c
395 657 363 662 333 662 _c
279 662 237 651 208 631 _c
179 610 165 580 165 542 _c
165 510 174 485 194 469 _c
213 452 250 439 304 429 _c
364 417 _l
437 403 491 378 526 343 _c
561 307 579 260 579 201 _c
579 130 555 77 508 41 _c
460 5 391 -13 300 -13 _c
265 -13 228 -9 189 -2 _c
}_e{150 5 110 16 69 32 _c
69 134 _l
109 111 148 94 186 83 _c
224 71 262 66 300 66 _c
356 66 399 77 430 99 _c
460 121 476 152 476 194 _c
476 230 465 258 443 278 _c
421 298 385 313 335 323 _c
275 335 _l
201 349 148 372 115 404 _c
82 435 66 478 66 534 _c
66 598 88 649 134 686 _c
179 723 242 742 322 742 _c
356 742 390 739 426 733 _c
461 727 497 717 535 705 _c
}_e{_cl}_e}_d
/T{611 0 -2 0 614 729 _sc
-2 729 _m
614 729 _l
614 646 _l
355 646 _l
355 0 _l
256 0 _l
256 646 _l
-2 646 _l
-2 729 _l
_cl}_d
/a{{613 0 60 -13 522 560 _sc
343 275 _m
270 275 220 266 192 250 _c
164 233 150 205 150 165 _c
150 133 160 107 181 89 _c
202 70 231 61 267 61 _c
317 61 357 78 387 114 _c
417 149 432 196 432 255 _c
432 275 _l
343 275 _l
522 312 _m
522 0 _l
432 0 _l
432 83 _l
411 49 385 25 355 10 _c
325 -5 287 -13 243 -13 _c
187 -13 142 2 109 33 _c
76 64 60 106 60 159 _c
}_e{60 220 80 266 122 298 _c
163 329 224 345 306 345 _c
432 345 _l
432 354 _l
432 395 418 427 391 450 _c
364 472 326 484 277 484 _c
245 484 215 480 185 472 _c
155 464 127 453 100 439 _c
100 522 _l
132 534 164 544 195 550 _c
226 556 256 560 286 560 _c
365 560 424 539 463 498 _c
502 457 522 395 522 312 _c
_cl}_e}_d
/b{{635 0 91 -13 580 760 _sc
487 273 _m
487 339 473 390 446 428 _c
418 466 381 485 334 485 _c
286 485 249 466 222 428 _c
194 390 181 339 181 273 _c
181 207 194 155 222 117 _c
249 79 286 61 334 61 _c
381 61 418 79 446 117 _c
473 155 487 207 487 273 _c
181 464 _m
199 496 223 520 252 536 _c
281 552 316 560 356 560 _c
422 560 476 533 518 481 _c
559 428 580 359 580 273 _c
}_e{580 187 559 117 518 65 _c
476 13 422 -13 356 -13 _c
316 -13 281 -5 252 10 _c
223 25 199 49 181 82 _c
181 0 _l
91 0 _l
91 760 _l
181 760 _l
181 464 _l
_cl}_e}_d
/c{{550 0 55 -13 488 560 _sc
488 526 _m
488 442 _l
462 456 437 466 411 473 _c
385 480 360 484 334 484 _c
276 484 230 465 198 428 _c
166 391 150 339 150 273 _c
150 206 166 154 198 117 _c
230 80 276 62 334 62 _c
360 62 385 65 411 72 _c
437 79 462 90 488 104 _c
488 21 _l
462 9 436 0 410 -5 _c
383 -10 354 -13 324 -13 _c
242 -13 176 12 128 64 _c
}_e{79 115 55 185 55 273 _c
55 362 79 432 128 483 _c
177 534 244 560 330 560 _c
358 560 385 557 411 551 _c
437 545 463 537 488 526 _c
_cl}_e}_d
/d{{635 0 55 -13 544 760 _sc
454 464 _m
454 760 _l
544 760 _l
544 0 _l
454 0 _l
454 82 _l
435 49 411 25 382 10 _c
353 -5 319 -13 279 -13 _c
213 -13 159 13 117 65 _c
75 117 55 187 55 273 _c
55 359 75 428 117 481 _c
159 533 213 560 279 560 _c
319 560 353 552 382 536 _c
411 520 435 496 454 464 _c
148 273 _m
148 207 161 155 188 117 _c
215 79 253 61 301 61 _c
}_e{348 61 385 79 413 117 _c
440 155 454 207 454 273 _c
454 339 440 390 413 428 _c
385 466 348 485 301 485 _c
253 485 215 466 188 428 _c
161 390 148 339 148 273 _c
_cl}_e}_d
/e{{615 0 55 -13 562 560 _sc
562 296 _m
562 252 _l
149 252 _l
153 190 171 142 205 110 _c
238 78 284 62 344 62 _c
378 62 412 66 444 74 _c
476 82 509 95 541 113 _c
541 28 _l
509 14 476 3 442 -3 _c
408 -9 373 -13 339 -13 _c
251 -13 182 12 131 62 _c
80 112 55 181 55 268 _c
55 357 79 428 127 481 _c
175 533 241 560 323 560 _c
397 560 455 536 498 489 _c
}_e{540 441 562 377 562 296 _c
472 322 _m
471 371 457 410 431 440 _c
404 469 368 484 324 484 _c
274 484 234 469 204 441 _c
174 413 156 373 152 322 _c
472 322 _l
_cl}_e}_d
/g{{635 0 55 -207 544 560 _sc
454 280 _m
454 344 440 395 414 431 _c
387 467 349 485 301 485 _c
253 485 215 467 188 431 _c
161 395 148 344 148 280 _c
148 215 161 165 188 129 _c
215 93 253 75 301 75 _c
349 75 387 93 414 129 _c
440 165 454 215 454 280 _c
544 68 _m
544 -24 523 -93 482 -139 _c
440 -184 377 -207 292 -207 _c
260 -207 231 -204 203 -200 _c
175 -195 147 -188 121 -178 _c
}_e{121 -91 _l
147 -105 173 -115 199 -122 _c
225 -129 251 -133 278 -133 _c
336 -133 380 -117 410 -87 _c
439 -56 454 -10 454 52 _c
454 96 _l
435 64 411 40 382 24 _c
353 8 319 0 279 0 _c
211 0 157 25 116 76 _c
75 127 55 195 55 280 _c
55 364 75 432 116 483 _c
157 534 211 560 279 560 _c
319 560 353 552 382 536 _c
411 520 435 496 454 464 _c
454 547 _l
544 547 _l
}_e{544 68 _l
_cl}_e}_d
/i{278 0 94 0 184 760 _sc
94 547 _m
184 547 _l
184 0 _l
94 0 _l
94 547 _l
94 760 _m
184 760 _l
184 646 _l
94 646 _l
94 760 _l
_cl}_d
/m{{974 0 91 0 889 560 _sc
520 442 _m
542 482 569 511 600 531 _c
631 550 668 560 711 560 _c
767 560 811 540 842 500 _c
873 460 889 403 889 330 _c
889 0 _l
799 0 _l
799 327 _l
799 379 789 418 771 444 _c
752 469 724 482 686 482 _c
639 482 602 466 575 435 _c
548 404 535 362 535 309 _c
535 0 _l
445 0 _l
445 327 _l
445 379 435 418 417 444 _c
398 469 369 482 331 482 _c
}_e{285 482 248 466 221 435 _c
194 404 181 362 181 309 _c
181 0 _l
91 0 _l
91 547 _l
181 547 _l
181 462 _l
201 495 226 520 255 536 _c
283 552 317 560 357 560 _c
397 560 430 550 458 530 _c
486 510 506 480 520 442 _c
_cl}_e}_d
/n{634 0 91 0 549 560 _sc
549 330 _m
549 0 _l
459 0 _l
459 327 _l
459 379 448 417 428 443 _c
408 469 378 482 338 482 _c
289 482 251 466 223 435 _c
195 404 181 362 181 309 _c
181 0 _l
91 0 _l
91 547 _l
181 547 _l
181 462 _l
202 494 227 519 257 535 _c
286 551 320 560 358 560 _c
420 560 468 540 500 501 _c
532 462 549 405 549 330 _c
_cl}_d
/p{{635 0 91 -207 580 560 _sc
181 82 _m
181 -207 _l
91 -207 _l
91 547 _l
181 547 _l
181 464 _l
199 496 223 520 252 536 _c
281 552 316 560 356 560 _c
422 560 476 533 518 481 _c
559 428 580 359 580 273 _c
580 187 559 117 518 65 _c
476 13 422 -13 356 -13 _c
316 -13 281 -5 252 10 _c
223 25 199 49 181 82 _c
487 273 _m
487 339 473 390 446 428 _c
418 466 381 485 334 485 _c
}_e{286 485 249 466 222 428 _c
194 390 181 339 181 273 _c
181 207 194 155 222 117 _c
249 79 286 61 334 61 _c
381 61 418 79 446 117 _c
473 155 487 207 487 273 _c
_cl}_e}_d
/r{411 0 91 0 411 560 _sc
411 463 _m
401 469 390 473 378 476 _c
366 478 353 480 339 480 _c
288 480 249 463 222 430 _c
194 397 181 350 181 288 _c
181 0 _l
91 0 _l
91 547 _l
181 547 _l
181 462 _l
199 495 224 520 254 536 _c
284 552 321 560 365 560 _c
371 560 378 559 386 559 _c
393 558 401 557 411 555 _c
411 463 _l
_cl}_d
/s{{521 0 54 -13 472 560 _sc
443 531 _m
443 446 _l
417 458 391 468 364 475 _c
336 481 308 485 279 485 _c
234 485 200 478 178 464 _c
156 450 145 430 145 403 _c
145 382 153 366 169 354 _c
185 342 217 330 265 320 _c
296 313 _l
360 299 405 279 432 255 _c
458 230 472 195 472 151 _c
472 100 452 60 412 31 _c
372 1 316 -13 246 -13 _c
216 -13 186 -10 154 -5 _c
}_e{122 0 89 8 54 20 _c
54 113 _l
87 95 120 82 152 74 _c
184 65 216 61 248 61 _c
290 61 323 68 346 82 _c
368 96 380 117 380 144 _c
380 168 371 187 355 200 _c
339 213 303 226 247 238 _c
216 245 _l
160 257 119 275 95 299 _c
70 323 58 356 58 399 _c
58 450 76 490 112 518 _c
148 546 200 560 268 560 _c
301 560 332 557 362 552 _c
391 547 418 540 443 531 _c
}_e{_cl}_e}_d
/t{392 0 27 0 368 702 _sc
183 702 _m
183 547 _l
368 547 _l
368 477 _l
183 477 _l
183 180 _l
183 135 189 106 201 94 _c
213 81 238 75 276 75 _c
368 75 _l
368 0 _l
276 0 _l
206 0 158 13 132 39 _c
106 65 93 112 93 180 _c
93 477 _l
27 477 _l
27 547 _l
93 547 _l
93 702 _l
183 702 _l
_cl}_d
end readonly def

/BuildGlyph
 {exch begin
 CharStrings exch
 2 copy known not{pop /.notdef}if
 true 3 1 roll get exec
 end}_d

/BuildChar {
 1 index /Encoding get exch get
 1 index /BuildGlyph get exec
}_d

FontName currentdict end definefont pop
end
%%EndProlog
mpldict begin
52.381 175.806 translate
507.237 440.389 0 0 clipbox
gsave
0 0 m
507.2375 0 l
507.2375 440.38875 l
0 440.38875 l
cl
1.000 setgray
fill
grestore
gsave
50.1375 335.342011 m
496.5375 335.342011 l
496.5375 418.06375 l
50.1375 418.06375 l
cl
1.000 setgray
fill
grestore
0.800 setlinewidth
1 setlinejoin
0 setlinecap
[] 0 setdash
0.000 setgray
gsave
/o {
gsave
newpath
translate
0.8 setlinewidth
1 setlinejoin
0 setlinecap
0 0 m
0 -3.5 l

gsave
0.000 setgray
fill
grestore
stroke
grestore
} bind def
50.1375 335.342 o
grestore
/DejaVuSans findfont
10.000 scalefont
setfont
gsave
42.184375 320.748261 translate
0.000000 rotate
0.000000 0.000000 m /zero glyphshow
6.362305 0.000000 m /period glyphshow
9.541016 0.000000 m /zero glyphshow
grestore
gsave
/o {
gsave
newpath
translate
0.8 setlinewidth
1 setlinejoin
0 setlinecap
0 0 m
0 -3.5 l

gsave
0.000 setgray
fill
grestore
stroke
grestore
} bind def
114.031 335.342 o
grestore
gsave
106.077505 320.748261 translate
0.000000 rotate
0.000000 0.000000 m /zero glyphshow
6.362305 0.000000 m /period glyphshow
9.541016 0.000000 m /two glyphshow
grestore
gsave
/o {
gsave
newpath
translate
0.8 setlinewidth
1 setlinejoin
0 setlinecap
0 0 m
0 -3.5 l

gsave
0.000 setgray
fill
grestore
stroke
grestore
} bind def
177.924 335.342 o
grestore
gsave
169.970635 320.748261 translate
0.000000 rotate
0.000000 0.000000 m /zero glyphshow
6.362305 0.000000 m /period glyphshow
9.541016 0.000000 m /four glyphshow
grestore
gsave
/o {
gsave
newpath
translate
0.8 setlinewidth
1 setlinejoin
0 setlinecap
0 0 m
0 -3.5 l

gsave
0.000 setgray
fill
grestore
stroke
grestore
} bind def
241.817 335.342 o
grestore
gsave
233.863764 320.748261 translate
0.000000 rotate
0.000000 0.000000 m /zero glyphshow
6.362305 0.000000 m /period glyphshow
9.541016 0.000000 m /six glyphshow
grestore
gsave
/o {
gsave
newpath
translate
0.8 setlinewidth
1 setlinejoin
0 setlinecap
0 0 m
0 -3.5 l

gsave
0.000 setgray
fill
grestore
stroke
grestore
} bind def
305.71 335.342 o
grestore
gsave
297.756894 320.748261 translate
0.000000 rotate
0.000000 0.000000 m /zero glyphshow
6.362305 0.000000 m /period glyphshow
9.541016 0.000000 m /eight glyphshow
grestore
gsave
/o {
gsave
newpath
translate
0.8 setlinewidth
1 setlinejoin
0 setlinecap
0 0 m
0 -3.5 l

gsave
0.000 setgray
fill
grestore
stroke
grestore
} bind def
369.603 335.342 o
grestore
gsave
361.650024 320.748261 translate
0.000000 rotate
0.000000 0.000000 m /one glyphshow
6.362305 0.000000 m /period glyphshow
9.541016 0.000000 m /zero glyphshow
grestore
gsave
/o {
gsave
newpath
translate
0.8 setlinewidth
1 setlinejoin
0 setlinecap
0 0 m
0 -3.5 l

gsave
0.000 setgray
fill
grestore
stroke
grestore
} bind def
433.496 335.342 o
grestore
gsave
425.543154 320.748261 translate
0.000000 rotate
0.000000 0.000000 m /one glyphshow
6.362305 0.000000 m /period glyphshow
9.541016 0.000000 m /two glyphshow
grestore
gsave
/o {
gsave
newpath
translate
0.8 setlinewidth
1 setlinejoin
0 setlinecap
0 0 m
-3.5 0 l

gsave
0.000 setgray
fill
grestore
stroke
grestore
} bind def
50.1375 353.462 o
grestore
gsave
20.871875 349.665010 translate
0.000000 rotate
0.000000 0.000000 m /zero glyphshow
6.362305 0.000000 m /period glyphshow
9.541016 0.000000 m /eight glyphshow
15.903320 0.000000 m /five glyphshow
grestore
gsave
/o {
gsave
newpath
translate
0.8 setlinewidth
1 setlinejoin
0 setlinecap
0 0 m
-3.5 0 l

gsave
0.000 setgray
fill
grestore
stroke
grestore
} bind def
50.1375 374.996 o
grestore
gsave
20.871875 371.198965 translate
0.000000 rotate
0.000000 0.000000 m /zero glyphshow
6.362305 0.000000 m /period glyphshow
9.541016 0.000000 m /nine glyphshow
15.903320 0.000000 m /zero glyphshow
grestore
gsave
/o {
gsave
newpath
translate
0.8 setlinewidth
1 setlinejoin
0 setlinecap
0 0 m
-3.5 0 l

gsave
0.000 setgray
fill
grestore
stroke
grestore
} bind def
50.1375 396.53 o
grestore
gsave
20.871875 392.732920 translate
0.000000 rotate
0.000000 0.000000 m /zero glyphshow
6.362305 0.000000 m /period glyphshow
9.541016 0.000000 m /nine glyphshow
15.903320 0.000000 m /five glyphshow
grestore
gsave
/o {
gsave
newpath
translate
0.8 setlinewidth
1 setlinejoin
0 setlinecap
0 0 m
-3.5 0 l

gsave
0.000 setgray
fill
grestore
stroke
grestore
} bind def
50.1375 418.064 o
grestore
gsave
20.871875 414.266875 translate
0.000000 rotate
0.000000 0.000000 m /one glyphshow
6.362305 0.000000 m /period glyphshow
9.541016 0.000000 m /zero glyphshow
15.903320 0.000000 m /zero glyphshow
grestore
gsave
14.793750 353.835693 translate
90.000000 rotate
0.000000 0.000000 m /S glyphshow
6.347656 0.000000 m /t glyphshow
10.268555 0.000000 m /a glyphshow
16.396484 0.000000 m /t glyphshow
20.317383 0.000000 m /i glyphshow
23.095703 0.000000 m /s glyphshow
28.305664 0.000000 m /t glyphshow
32.226562 0.000000 m /i glyphshow
35.004883 0.000000 m /c glyphshow
40.502930 0.000000 m /s glyphshow
grestore
1.500 setlinewidth
2 setlinecap
0.122 0.467 0.706 setrgbcolor
gsave
446.4 82.72 50.14 335.3 clipbox
50.1375 337.446415 m
53.545134 337.126633 l
56.952767 337.054515 l
60.360401 335.88135 l
63.768034 335.416148 l
67.175668 335.786123 l
70.583302 335.492624 l
73.990935 335.342011 l
77.398569 336.33812 l
84.213836 336.452892 l
87.621469 337.73319 l
91.029103 337.656621 l
94.436737 336.867248 l
97.84437 337.385237 l
101.252004 337.003179 l
104.659637 337.256337 l
108.067271 336.821104 l
111.474905 336.636704 l
114.882538 337.03468 l
118.290172 337.694922 l
121.697805 337.227523 l
125.105439 337.861174 l
128.513073 337.216945 l
131.920706 337.238884 l
135.32834 336.015507 l
138.735973 336.273756 l
142.143607 335.54651 l
145.55124 336.532758 l
148.958874 337.207413 l
152.366508 336.681629 l
155.774141 336.393598 l
159.181775 337.105301 l
162.589408 336.709392 l
165.997042 337.056148 l
169.404676 336.227512 l
172.812309 336.344243 l
176.219943 337.254321 l
179.627576 337.164425 l
183.03521 338.023211 l
186.442844 336.9122 l
189.850477 337.141474 l
193.258111 336.467619 l
196.665744 336.909266 l
200.073378 337.707304 l
203.481011 337.681114 l
206.888645 337.325464 l
210.296279 337.528845 l
213.703912 338.292391 l
217.111546 339.275307 l
220.519179 338.70836 l
223.926813 338.452322 l
227.334447 338.844864 l
230.74208 338.81083 l
234.149714 339.034723 l
237.557347 338.182729 l
240.964981 338.020923 l
244.372615 338.637114 l
247.780248 338.647551 l
251.187882 339.923569 l
254.595515 340.501248 l
258.003149 342.127157 l
261.410782 341.971896 l
264.818416 343.101083 l
268.22605 343.58672 l
271.633683 343.56848 l
275.041317 343.740119 l
278.44895 343.118289 l
281.856584 343.724124 l
285.264218 344.09585 l
288.671851 344.240174 l
292.079485 343.981117 l
295.487118 344.994453 l
298.894752 345.679903 l
302.302385 344.389171 l
305.710019 344.047746 l
309.117653 344.04862 l
312.525286 344.386129 l
315.93292 345.118579 l
319.340553 345.341319 l
322.748187 345.690026 l
326.155821 345.735405 l
329.563454 345.958069 l
332.971088 345.730926 l
339.786355 347.806386 l
343.193989 346.880203 l
346.601622 347.512319 l
350.009256 348.001578 l
353.416889 347.365151 l
356.824523 347.172493 l
360.232156 347.224198 l
363.63979 346.526646 l
367.047424 346.689325 l
370.455057 347.351617 l
373.862691 347.117786 l
377.270324 347.527362 l
380.677958 347.475284 l
384.085592 347.954507 l
387.493225 348.256055 l
390.900859 348.085788 l
394.308492 347.674187 l
397.716126 348.23073 l
401.12376 347.811646 l
404.531393 348.564309 l
407.939027 348.712389 l
411.34666 350.109607 l
414.754294 350.060245 l
418.161927 351.048357 l
421.569561 350.214242 l
424.977195 349.673204 l
428.384828 350.489539 l
431.792462 351.065308 l
435.200095 350.4334 l
438.607729 351.168319 l
442.015363 350.965727 l
445.422996 352.33869 l
448.83063 352.468197 l
452.238263 351.452231 l
455.645897 351.854113 l
459.053531 350.815397 l
462.461164 352.830772 l
465.868798 352.448216 l
469.276431 352.223047 l
472.684065 351.596073 l
476.091698 350.350256 l
479.499332 350.427142 l
482.906966 351.214868 l
486.314599 350.909604 l
489.722233 349.793534 l
493.129866 349.237336 l
496.5375 349.689458 l
496.5375 349.689458 l
stroke
grestore
1.000 0.498 0.055 setrgbcolor
gsave
446.4 82.72 50.14 335.3 clipbox
50.1375 418.06375 m
128.513073 418.06375 l
131.920706 417.48498 l
135.32834 412.576657 l
138.735973 412.430432 l
145.55124 411.411784 l
148.958874 410.65533 l
155.774141 410.288304 l
159.181775 409.224997 l
165.997042 408.081563 l
169.404676 407.988759 l
172.812309 407.023592 l
179.627576 406.962869 l
183.03521 406.572503 l
186.442844 406.613826 l
189.850477 405.577297 l
193.258111 404.214657 l
196.665744 403.261268 l
200.073378 402.779256 l
203.481011 402.46017 l
206.888645 401.500109 l
210.296279 401.384443 l
213.703912 400.745958 l
217.111546 400.313484 l
220.519179 400.109478 l
227.334447 399.220228 l
230.74208 399.063681 l
234.149714 398.573372 l
237.557347 397.466212 l
240.964981 396.217876 l
244.372615 395.322702 l
247.780248 393.5729 l
251.187882 393.168499 l
254.595515 391.690962 l
258.003149 391.391893 l
261.410782 391.223173 l
264.818416 389.570951 l
268.22605 388.777302 l
271.633683 388.543067 l
275.041317 387.574344 l
281.856584 379.044479 l
285.264218 378.712078 l
288.671851 378.120334 l
292.079485 376.848016 l
295.487118 376.617617 l
298.894752 375.871211 l
302.302385 374.434651 l
305.710019 373.635527 l
309.117653 373.451204 l
312.525286 373.070748 l
315.93292 371.209531 l
326.155821 370.470107 l
332.971088 369.382724 l
336.378721 368.682427 l
339.786355 368.601218 l
343.193989 368.082701 l
346.601622 366.365566 l
350.009256 366.091 l
353.416889 365.376193 l
356.824523 363.501077 l
360.232156 362.215861 l
373.862691 359.314672 l
384.085592 356.932952 l
394.308492 354.349961 l
404.531393 351.539058 l
407.939027 351.107645 l
411.34666 355.010252 l
414.754294 354.275338 l
421.569561 353.544807 l
424.977195 353.46553 l
431.792462 351.999634 l
435.200095 352.327308 l
442.015363 351.835416 l
445.422996 350.95697 l
448.83063 351.271261 l
455.645897 349.257911 l
459.053531 348.748764 l
462.461164 347.549335 l
465.868798 347.818222 l
469.276431 348.637168 l
472.684065 348.799626 l
476.091698 348.156622 l
479.499332 347.198771 l
482.906966 347.352102 l
486.314599 345.957951 l
489.722233 345.483799 l
493.129866 344.589762 l
496.5375 343.200751 l
496.5375 343.200751 l
stroke
grestore
0.800 setlinewidth
0 setlinejoin
[] 0 setdash
0.000 setgray
gsave
50.1375 335.342011 m
50.1375 418.06375 l
stroke
grestore
gsave
496.5375 335.342011 m
496.5375 418.06375 l
stroke
grestore
gsave
50.1375 335.342011 m
496.5375 335.342011 l
stroke
grestore
gsave
50.1375 418.06375 m
496.5375 418.06375 l
stroke
grestore
/DejaVuSans findfont
12.000 scalefont
setfont
gsave
257.517187 424.063750 translate
0.000000 rotate
0.000000 0.000000 m /hyphen glyphshow
4.330078 0.000000 m /six glyphshow
11.964844 0.000000 m /space glyphshow
15.779297 0.000000 m /d glyphshow
23.396484 0.000000 m /B glyphshow
grestore
1.000 setlinewidth
0 setlinecap
0.800 setgray
gsave
385.521875 380.72 m
489.5375 380.72 l
490.870833 380.72 491.5375 381.386667 491.5375 382.72 c
491.5375 411.06375 l
491.5375 412.397083 490.870833 413.06375 489.5375 413.06375 c
385.521875 413.06375 l
384.188542 413.06375 383.521875 412.397083 383.521875 411.06375 c
383.521875 382.72 l
383.521875 381.386667 384.188542 380.72 385.521875 380.72 c
cl
gsave
1.000 setgray
fill
grestore
stroke
grestore
1.500 setlinewidth
1 setlinejoin
2 setlinecap
[] 0 setdash
0.122 0.467 0.706 setrgbcolor
gsave
387.521875 404.97 m
407.521875 404.97 l
stroke
grestore
0.000 setgray
/DejaVuSans findfont
10.000 scalefont
setfont
gsave
415.521875 401.470000 translate
0.000000 rotate
0.000000 0.000000 m /t glyphshow
3.920898 0.000000 m /a glyphshow
10.048828 0.000000 m /r glyphshow
14.160156 0.000000 m /g glyphshow
20.507812 0.000000 m /e glyphshow
26.660156 0.000000 m /t glyphshow
30.581055 0.000000 m /space glyphshow
33.759766 0.000000 m /a glyphshow
39.887695 0.000000 m /b glyphshow
46.235352 0.000000 m /s glyphshow
51.445312 0.000000 m /e glyphshow
57.597656 0.000000 m /n glyphshow
63.935547 0.000000 m /t glyphshow
grestore
1.000 0.498 0.055 setrgbcolor
gsave
387.521875 390.298125 m
407.521875 390.298125 l
stroke
grestore
0.000 setgray
gsave
415.521875 386.798125 translate
0.000000 rotate
0.000000 0.000000 m /t glyphshow
3.920898 0.000000 m /a glyphshow
10.048828 0.000000 m /r glyphshow
14.160156 0.000000 m /g glyphshow
20.507812 0.000000 m /e glyphshow
26.660156 0.000000 m /t glyphshow
30.581055 0.000000 m /space glyphshow
33.759766 0.000000 m /p glyphshow
40.107422 0.000000 m /r glyphshow
44.218750 0.000000 m /e glyphshow
50.371094 0.000000 m /s glyphshow
55.581055 0.000000 m /e glyphshow
61.733398 0.000000 m /n glyphshow
68.071289 0.000000 m /t glyphshow
grestore
gsave
50.1375 186.44288 m
496.5375 186.44288 l
496.5375 269.16462 l
50.1375 269.16462 l
cl
1.000 setgray
fill
grestore
0.800 setlinewidth
0 setlinecap
gsave
/o {
gsave
newpath
translate
0.8 setlinewidth
1 setlinejoin
0 setlinecap
0 0 m
0 -3.5 l

gsave
0.000 setgray
fill
grestore
stroke
grestore
} bind def
50.1375 186.443 o
grestore
gsave
42.184375 171.849130 translate
0.000000 rotate
0.000000 0.000000 m /zero glyphshow
6.362305 0.000000 m /period glyphshow
9.541016 0.000000 m /zero glyphshow
grestore
gsave
/o {
gsave
newpath
translate
0.8 setlinewidth
1 setlinejoin
0 setlinecap
0 0 m
0 -3.5 l

gsave
0.000 setgray
fill
grestore
stroke
grestore
} bind def
114.031 186.443 o
grestore
gsave
106.077505 171.849130 translate
0.000000 rotate
0.000000 0.000000 m /zero glyphshow
6.362305 0.000000 m /period glyphshow
9.541016 0.000000 m /two glyphshow
grestore
gsave
/o {
gsave
newpath
translate
0.8 setlinewidth
1 setlinejoin
0 setlinecap
0 0 m
0 -3.5 l

gsave
0.000 setgray
fill
grestore
stroke
grestore
} bind def
177.924 186.443 o
grestore
gsave
169.970635 171.849130 translate
0.000000 rotate
0.000000 0.000000 m /zero glyphshow
6.362305 0.000000 m /period glyphshow
9.541016 0.000000 m /four glyphshow
grestore
gsave
/o {
gsave
newpath
translate
0.8 setlinewidth
1 setlinejoin
0 setlinecap
0 0 m
0 -3.5 l

gsave
0.000 setgray
fill
grestore
stroke
grestore
} bind def
241.817 186.443 o
grestore
gsave
233.863764 171.849130 translate
0.000000 rotate
0.000000 0.000000 m /zero glyphshow
6.362305 0.000000 m /period glyphshow
9.541016 0.000000 m /six glyphshow
grestore
gsave
/o {
gsave
newpath
translate
0.8 setlinewidth
1 setlinejoin
0 setlinecap
0 0 m
0 -3.5 l

gsave
0.000 setgray
fill
grestore
stroke
grestore
} bind def
305.71 186.443 o
grestore
gsave
297.756894 171.849130 translate
0.000000 rotate
0.000000 0.000000 m /zero glyphshow
6.362305 0.000000 m /period glyphshow
9.541016 0.000000 m /eight glyphshow
grestore
gsave
/o {
gsave
newpath
translate
0.8 setlinewidth
1 setlinejoin
0 setlinecap
0 0 m
0 -3.5 l

gsave
0.000 setgray
fill
grestore
stroke
grestore
} bind def
369.603 186.443 o
grestore
gsave
361.650024 171.849130 translate
0.000000 rotate
0.000000 0.000000 m /one glyphshow
6.362305 0.000000 m /period glyphshow
9.541016 0.000000 m /zero glyphshow
grestore
gsave
/o {
gsave
newpath
translate
0.8 setlinewidth
1 setlinejoin
0 setlinecap
0 0 m
0 -3.5 l

gsave
0.000 setgray
fill
grestore
stroke
grestore
} bind def
433.496 186.443 o
grestore
gsave
425.543154 171.849130 translate
0.000000 rotate
0.000000 0.000000 m /one glyphshow
6.362305 0.000000 m /period glyphshow
9.541016 0.000000 m /two glyphshow
grestore
gsave
/o {
gsave
newpath
translate
0.8 setlinewidth
1 setlinejoin
0 setlinecap
0 0 m
-3.5 0 l

gsave
0.000 setgray
fill
grestore
stroke
grestore
} bind def
50.1375 195.532 o
grestore
gsave
27.231250 191.735178 translate
0.000000 rotate
0.000000 0.000000 m /zero glyphshow
6.362305 0.000000 m /period glyphshow
9.541016 0.000000 m /seven glyphshow
grestore
gsave
/o {
gsave
newpath
translate
0.8 setlinewidth
1 setlinejoin
0 setlinecap
0 0 m
-3.5 0 l

gsave
0.000 setgray
fill
grestore
stroke
grestore
} bind def
50.1375 220.076 o
grestore
gsave
27.231250 216.279367 translate
0.000000 rotate
0.000000 0.000000 m /zero glyphshow
6.362305 0.000000 m /period glyphshow
9.541016 0.000000 m /eight glyphshow
grestore
gsave
/o {
gsave
newpath
translate
0.8 setlinewidth
1 setlinejoin
0 setlinecap
0 0 m
-3.5 0 l

gsave
0.000 setgray
fill
grestore
stroke
grestore
} bind def
50.1375 244.62 o
grestore
gsave
27.231250 240.823556 translate
0.000000 rotate
0.000000 0.000000 m /zero glyphshow
6.362305 0.000000 m /period glyphshow
9.541016 0.000000 m /nine glyphshow
grestore
gsave
/o {
gsave
newpath
translate
0.8 setlinewidth
1 setlinejoin
0 setlinecap
0 0 m
-3.5 0 l

gsave
0.000 setgray
fill
grestore
stroke
grestore
} bind def
50.1375 269.165 o
grestore
gsave
27.231250 265.367745 translate
0.000000 rotate
0.000000 0.000000 m /one glyphshow
6.362305 0.000000 m /period glyphshow
9.541016 0.000000 m /zero glyphshow
grestore
gsave
21.153125 204.936563 translate
90.000000 rotate
0.000000 0.000000 m /S glyphshow
6.347656 0.000000 m /t glyphshow
10.268555 0.000000 m /a glyphshow
16.396484 0.000000 m /t glyphshow
20.317383 0.000000 m /i glyphshow
23.095703 0.000000 m /s glyphshow
28.305664 0.000000 m /t glyphshow
32.226562 0.000000 m /i glyphshow
35.004883 0.000000 m /c glyphshow
40.502930 0.000000 m /s glyphshow
grestore
1.500 setlinewidth
2 setlinecap
0.122 0.467 0.706 setrgbcolor
gsave
446.4 82.72 50.14 186.4 clipbox
50.1375 223.221199 m
53.545134 223.038957 l
56.952767 222.997857 l
60.360401 222.329277 l
63.768034 222.06416 l
67.175668 222.275007 l
73.990935 222.02191 l
77.398569 222.589588 l
80.806202 222.622952 l
84.213836 222.484835 l
87.621469 223.209101 l
97.84437 224.925482 l
104.659637 224.526611 l
108.067271 224.019583 l
114.882538 223.8347 l
128.513073 223.906925 l
131.920706 224.448104 l
135.32834 224.829005 l
138.735973 224.61531 l
142.143607 224.682765 l
148.958874 225.600815 l
152.366508 225.465132 l
155.774141 225.824244 l
159.181775 226.008266 l
162.589408 225.602108 l
165.997042 225.315596 l
169.404676 224.616082 l
172.812309 224.951487 l
176.219943 224.76737 l
179.627576 224.245073 l
183.03521 224.168048 l
186.442844 223.093278 l
189.850477 223.235678 l
193.258111 221.971412 l
200.073378 221.118912 l
203.481011 221.286297 l
206.888645 221.033449 l
213.703912 220.776256 l
217.111546 221.444631 l
220.519179 221.37973 l
223.926813 221.060739 l
230.74208 221.332689 l
234.149714 221.261187 l
244.372615 220.305911 l
247.780248 220.671796 l
254.595515 222.020421 l
258.003149 222.177535 l
261.410782 221.698889 l
264.818416 222.161364 l
268.22605 222.46244 l
271.633683 222.909371 l
275.041317 222.6059 l
278.44895 222.534317 l
285.264218 223.070407 l
292.079485 223.599397 l
295.487118 223.736604 l
298.894752 223.473078 l
302.302385 223.332119 l
305.710019 223.451364 l
309.117653 224.254021 l
315.93292 224.048497 l
319.340553 224.273816 l
322.748187 224.261414 l
332.971088 225.389603 l
339.786355 226.53941 l
343.193989 226.545294 l
346.601622 226.352181 l
350.009256 226.942236 l
353.416889 226.848317 l
356.824523 227.235014 l
360.232156 227.177739 l
370.455057 225.988228 l
373.862691 225.678208 l
380.677958 226.001422 l
384.085592 226.418753 l
390.900859 226.639465 l
404.531393 226.736475 l
407.939027 226.253682 l
411.34666 225.900139 l
414.754294 226.136888 l
418.161927 226.088991 l
424.977195 225.097846 l
428.384828 225.247526 l
431.792462 224.812965 l
435.200095 224.568136 l
438.607729 225.061509 l
442.015363 225.429013 l
445.422996 226.380379 l
448.83063 225.942891 l
452.238263 226.227197 l
455.645897 227.033259 l
459.053531 227.205377 l
462.461164 228.971921 l
465.868798 228.674554 l
469.276431 229.938135 l
472.684065 230.607395 l
476.091698 231.485092 l
479.499332 231.227669 l
482.906966 231.780416 l
486.314599 232.067227 l
489.722233 232.526049 l
493.129866 232.054379 l
496.5375 231.853492 l
496.5375 231.853492 l
stroke
grestore
1.000 0.498 0.055 setrgbcolor
gsave
446.4 82.72 50.14 186.4 clipbox
50.1375 269.16462 m
131.920706 269.164596 l
135.32834 268.288477 l
138.735973 267.199132 l
142.143607 265.439027 l
145.55124 262.910206 l
148.958874 262.974279 l
152.366508 262.605675 l
155.774141 262.438339 l
159.181775 262.397571 l
162.589408 262.214702 l
165.997042 260.669707 l
169.404676 258.648631 l
172.812309 257.114103 l
176.219943 255.349099 l
179.627576 253.825796 l
183.03521 252.133766 l
186.442844 250.904744 l
193.258111 248.042256 l
196.665744 246.725776 l
200.073378 245.153451 l
203.481011 243.456437 l
206.888645 241.538803 l
217.111546 236.273885 l
220.519179 234.777843 l
227.334447 230.839595 l
230.74208 229.353919 l
234.149714 227.544228 l
237.557347 226.072863 l
244.372615 225.483477 l
247.780248 225.073604 l
251.187882 224.79085 l
254.595515 224.741726 l
261.410782 224.265204 l
268.22605 223.459786 l
275.041317 221.848506 l
281.856584 220.464424 l
285.264218 219.409935 l
292.079485 216.933885 l
295.487118 215.78827 l
302.302385 212.675849 l
305.710019 211.033919 l
309.117653 210.932327 l
312.525286 210.719038 l
315.93292 208.744699 l
326.155821 208.325414 l
332.971088 207.71534 l
336.378721 207.301985 l
339.786355 207.260812 l
343.193989 206.945938 l
346.601622 205.980967 l
350.009256 205.826772 l
353.416889 205.410309 l
356.824523 204.279243 l
360.232156 203.582462 l
370.455057 201.060071 l
380.677958 198.335889 l
390.900859 195.384692 l
401.12376 192.176869 l
407.939027 189.87875 l
411.34666 189.553568 l
414.754294 189.465126 l
418.161927 190.120643 l
421.569561 191.694775 l
424.977195 190.473797 l
428.384828 189.714296 l
431.792462 188.700242 l
435.200095 187.500887 l
438.607729 186.44288 l
442.015363 187.146438 l
445.422996 188.576411 l
448.83063 189.45071 l
452.238263 190.747134 l
455.645897 191.798813 l
459.053531 193.20911 l
472.684065 196.360276 l
476.091698 197.520999 l
479.499332 198.95175 l
482.906966 200.843206 l
486.314599 202.533752 l
489.722233 204.403063 l
493.129866 206.116874 l
496.5375 207.534719 l
496.5375 207.534719 l
stroke
grestore
0.800 setlinewidth
0 setlinejoin
[] 0 setdash
0.000 setgray
gsave
50.1375 186.44288 m
50.1375 269.16462 l
stroke
grestore
gsave
496.5375 186.44288 m
496.5375 269.16462 l
stroke
grestore
gsave
50.1375 186.44288 m
496.5375 186.44288 l
stroke
grestore
gsave
50.1375 269.16462 m
496.5375 269.16462 l
stroke
grestore
/DejaVuSans findfont
12.000 scalefont
setfont
gsave
259.681250 275.164620 translate
0.000000 rotate
0.000000 0.000000 m /zero glyphshow
7.634766 0.000000 m /space glyphshow
11.449219 0.000000 m /d glyphshow
19.066406 0.000000 m /B glyphshow
grestore
1.000 setlinewidth
0 setlinecap
0.800 setgray
gsave
385.521875 231.82087 m
489.5375 231.82087 l
490.870833 231.82087 491.5375 232.487536 491.5375 233.82087 c
491.5375 262.16462 l
491.5375 263.497953 490.870833 264.16462 489.5375 264.16462 c
385.521875 264.16462 l
384.188542 264.16462 383.521875 263.497953 383.521875 262.16462 c
383.521875 233.82087 l
383.521875 232.487536 384.188542 231.82087 385.521875 231.82087 c
cl
gsave
1.000 setgray
fill
grestore
stroke
grestore
1.500 setlinewidth
1 setlinejoin
2 setlinecap
[] 0 setdash
0.122 0.467 0.706 setrgbcolor
gsave
387.521875 256.07087 m
407.521875 256.07087 l
stroke
grestore
0.000 setgray
/DejaVuSans findfont
10.000 scalefont
setfont
gsave
415.521875 252.570870 translate
0.000000 rotate
0.000000 0.000000 m /t glyphshow
3.920898 0.000000 m /a glyphshow
10.048828 0.000000 m /r glyphshow
14.160156 0.000000 m /g glyphshow
20.507812 0.000000 m /e glyphshow
26.660156 0.000000 m /t glyphshow
30.581055 0.000000 m /space glyphshow
33.759766 0.000000 m /a glyphshow
39.887695 0.000000 m /b glyphshow
46.235352 0.000000 m /s glyphshow
51.445312 0.000000 m /e glyphshow
57.597656 0.000000 m /n glyphshow
63.935547 0.000000 m /t glyphshow
grestore
1.000 0.498 0.055 setrgbcolor
gsave
387.521875 241.398995 m
407.521875 241.398995 l
stroke
grestore
0.000 setgray
gsave
415.521875 237.898995 translate
0.000000 rotate
0.000000 0.000000 m /t glyphshow
3.920898 0.000000 m /a glyphshow
10.048828 0.000000 m /r glyphshow
14.160156 0.000000 m /g glyphshow
20.507812 0.000000 m /e glyphshow
26.660156 0.000000 m /t glyphshow
30.581055 0.000000 m /space glyphshow
33.759766 0.000000 m /p glyphshow
40.107422 0.000000 m /r glyphshow
44.218750 0.000000 m /e glyphshow
50.371094 0.000000 m /s glyphshow
55.581055 0.000000 m /e glyphshow
61.733398 0.000000 m /n glyphshow
68.071289 0.000000 m /t glyphshow
grestore
gsave
50.1375 37.54375 m
496.5375 37.54375 l
496.5375 120.265489 l
50.1375 120.265489 l
cl
1.000 setgray
fill
grestore
0.800 setlinewidth
0 setlinecap
gsave
/o {
gsave
newpath
translate
0.8 setlinewidth
1 setlinejoin
0 setlinecap
0 0 m
0 -3.5 l

gsave
0.000 setgray
fill
grestore
stroke
grestore
} bind def
50.1375 37.5438 o
grestore
gsave
42.184375 22.950000 translate
0.000000 rotate
0.000000 0.000000 m /zero glyphshow
6.362305 0.000000 m /period glyphshow
9.541016 0.000000 m /zero glyphshow
grestore
gsave
/o {
gsave
newpath
translate
0.8 setlinewidth
1 setlinejoin
0 setlinecap
0 0 m
0 -3.5 l

gsave
0.000 setgray
fill
grestore
stroke
grestore
} bind def
114.031 37.5438 o
grestore
gsave
106.077505 22.950000 translate
0.000000 rotate
0.000000 0.000000 m /zero glyphshow
6.362305 0.000000 m /period glyphshow
9.541016 0.000000 m /two glyphshow
grestore
gsave
/o {
gsave
newpath
translate
0.8 setlinewidth
1 setlinejoin
0 setlinecap
0 0 m
0 -3.5 l

gsave
0.000 setgray
fill
grestore
stroke
grestore
} bind def
177.924 37.5438 o
grestore
gsave
169.970635 22.950000 translate
0.000000 rotate
0.000000 0.000000 m /zero glyphshow
6.362305 0.000000 m /period glyphshow
9.541016 0.000000 m /four glyphshow
grestore
gsave
/o {
gsave
newpath
translate
0.8 setlinewidth
1 setlinejoin
0 setlinecap
0 0 m
0 -3.5 l

gsave
0.000 setgray
fill
grestore
stroke
grestore
} bind def
241.817 37.5438 o
grestore
gsave
233.863764 22.950000 translate
0.000000 rotate
0.000000 0.000000 m /zero glyphshow
6.362305 0.000000 m /period glyphshow
9.541016 0.000000 m /six glyphshow
grestore
gsave
/o {
gsave
newpath
translate
0.8 setlinewidth
1 setlinejoin
0 setlinecap
0 0 m
0 -3.5 l

gsave
0.000 setgray
fill
grestore
stroke
grestore
} bind def
305.71 37.5438 o
grestore
gsave
297.756894 22.950000 translate
0.000000 rotate
0.000000 0.000000 m /zero glyphshow
6.362305 0.000000 m /period glyphshow
9.541016 0.000000 m /eight glyphshow
grestore
gsave
/o {
gsave
newpath
translate
0.8 setlinewidth
1 setlinejoin
0 setlinecap
0 0 m
0 -3.5 l

gsave
0.000 setgray
fill
grestore
stroke
grestore
} bind def
369.603 37.5438 o
grestore
gsave
361.650024 22.950000 translate
0.000000 rotate
0.000000 0.000000 m /one glyphshow
6.362305 0.000000 m /period glyphshow
9.541016 0.000000 m /zero glyphshow
grestore
gsave
/o {
gsave
newpath
translate
0.8 setlinewidth
1 setlinejoin
0 setlinecap
0 0 m
0 -3.5 l

gsave
0.000 setgray
fill
grestore
stroke
grestore
} bind def
433.496 37.5438 o
grestore
gsave
425.543154 22.950000 translate
0.000000 rotate
0.000000 0.000000 m /one glyphshow
6.362305 0.000000 m /period glyphshow
9.541016 0.000000 m /two glyphshow
grestore
gsave
252.829687 9.278125 translate
0.000000 rotate
0.000000 0.000000 m /T glyphshow
6.108398 0.000000 m /i glyphshow
8.886719 0.000000 m /m glyphshow
18.627930 0.000000 m /e glyphshow
24.780273 0.000000 m /space glyphshow
27.958984 0.000000 m /parenleft glyphshow
31.860352 0.000000 m /s glyphshow
37.070312 0.000000 m /parenright glyphshow
grestore
gsave
/o {
gsave
newpath
translate
0.8 setlinewidth
1 setlinejoin
0 setlinecap
0 0 m
-3.5 0 l

gsave
0.000 setgray
fill
grestore
stroke
grestore
} bind def
50.1375 39.7928 o
grestore
gsave
27.231250 35.995965 translate
0.000000 rotate
0.000000 0.000000 m /zero glyphshow
6.362305 0.000000 m /period glyphshow
9.541016 0.000000 m /eight glyphshow
grestore
gsave
/o {
gsave
newpath
translate
0.8 setlinewidth
1 setlinejoin
0 setlinecap
0 0 m
-3.5 0 l

gsave
0.000 setgray
fill
grestore
stroke
grestore
} bind def
50.1375 80.0292 o
grestore
gsave
27.231250 76.232290 translate
0.000000 rotate
0.000000 0.000000 m /zero glyphshow
6.362305 0.000000 m /period glyphshow
9.541016 0.000000 m /nine glyphshow
grestore
gsave
/o {
gsave
newpath
translate
0.8 setlinewidth
1 setlinejoin
0 setlinecap
0 0 m
-3.5 0 l

gsave
0.000 setgray
fill
grestore
stroke
grestore
} bind def
50.1375 120.265 o
grestore
gsave
27.231250 116.468614 translate
0.000000 rotate
0.000000 0.000000 m /one glyphshow
6.362305 0.000000 m /period glyphshow
9.541016 0.000000 m /zero glyphshow
grestore
gsave
21.153125 56.037432 translate
90.000000 rotate
0.000000 0.000000 m /S glyphshow
6.347656 0.000000 m /t glyphshow
10.268555 0.000000 m /a glyphshow
16.396484 0.000000 m /t glyphshow
20.317383 0.000000 m /i glyphshow
23.095703 0.000000 m /s glyphshow
28.305664 0.000000 m /t glyphshow
32.226562 0.000000 m /i glyphshow
35.004883 0.000000 m /c glyphshow
40.502930 0.000000 m /s glyphshow
grestore
1.500 setlinewidth
2 setlinecap
0.122 0.467 0.706 setrgbcolor
gsave
446.4 82.72 50.14 37.54 clipbox
50.1375 44.948502 m
53.545134 44.649744 l
56.952767 44.582367 l
60.360401 43.486335 l
63.768034 43.051719 l
67.175668 43.397369 l
70.583302 43.123167 l
73.990935 42.982456 l
77.398569 43.913074 l
84.213836 44.0203 l
87.621469 45.216422 l
91.029103 45.144887 l
94.436737 44.407413 l
97.84437 44.891346 l
101.252004 44.534408 l
104.659637 44.770921 l
108.067271 44.364303 l
111.474905 44.192027 l
114.882538 44.563837 l
118.290172 45.18067 l
121.697805 44.744001 l
125.105439 45.335991 l
128.513073 44.734119 l
131.920706 45.023234 l
135.32834 44.095748 l
138.735973 43.80213 l
142.143607 43.687421 l
145.55124 43.967708 l
148.958874 43.834399 l
152.366508 43.335851 l
155.774141 43.097028 l
159.181775 43.174947 l
162.589408 43.069656 l
165.997042 43.220795 l
169.404676 42.704678 l
172.812309 42.908129 l
176.219943 42.659115 l
179.627576 42.708213 l
183.03521 42.987571 l
186.442844 42.89709 l
189.850477 42.41598 l
193.258111 41.360053 l
203.481011 40.981865 l
206.888645 40.603088 l
210.296279 40.521317 l
217.111546 40.821184 l
223.926813 39.639493 l
227.334447 39.978303 l
234.149714 39.619456 l
237.557347 39.612133 l
240.964981 39.406085 l
247.780248 39.186451 l
251.187882 40.22461 l
254.595515 40.412376 l
258.003149 41.539722 l
261.410782 41.230431 l
264.818416 41.298671 l
268.22605 41.48105 l
271.633683 42.006695 l
278.44895 41.303305 l
281.856584 41.671761 l
285.264218 41.924816 l
288.671851 41.798179 l
292.079485 41.932725 l
295.487118 42.647926 l
298.894752 42.517951 l
305.710019 42.644156 l
309.117653 42.993356 l
312.525286 42.137187 l
315.93292 42.858578 l
319.340553 43.064995 l
322.748187 42.328222 l
329.563454 41.244487 l
332.971088 41.141562 l
336.378721 41.716265 l
339.786355 41.883712 l
343.193989 40.964961 l
346.601622 41.204092 l
350.009256 41.2146 l
353.416889 40.517403 l
356.824523 39.628348 l
360.232156 39.526554 l
363.63979 38.692903 l
367.047424 38.658319 l
370.455057 39.085716 l
373.862691 38.670938 l
377.270324 38.852097 l
380.677958 38.596583 l
384.085592 38.831847 l
387.493225 38.895296 l
390.900859 38.511889 l
394.308492 37.896695 l
397.716126 38.179402 l
401.12376 37.54375 l
404.531393 37.995626 l
407.939027 37.614567 l
411.34666 38.429801 l
414.754294 38.645284 l
418.161927 38.686587 l
421.569561 38.300228 l
424.977195 38.359327 l
428.384828 38.849849 l
431.792462 39.06167 l
435.200095 38.896865 l
438.607729 38.957443 l
442.015363 38.686431 l
445.422996 39.305904 l
448.83063 38.959278 l
452.238263 39.245838 l
455.645897 39.108253 l
459.053531 38.609241 l
462.461164 38.667096 l
465.868798 39.023009 l
469.276431 39.110511 l
476.091698 38.756525 l
479.499332 38.813867 l
482.906966 39.2277 l
486.314599 39.020464 l
489.722233 38.580358 l
493.129866 39.145317 l
496.5375 39.179224 l
496.5375 39.179224 l
stroke
grestore
1.000 0.498 0.055 setrgbcolor
gsave
446.4 82.72 50.14 37.54 clipbox
50.1375 120.265489 m
131.920706 120.265487 l
138.735973 119.972193 l
142.143607 119.565454 l
145.55124 118.462868 l
148.958874 117.114669 l
152.366508 115.501639 l
159.181775 113.6233 l
162.589408 113.076972 l
165.997042 112.765343 l
172.812309 112.394269 l
176.219943 112.289695 l
189.850477 111.210898 l
210.296279 109.627962 l
227.334447 107.825262 l
230.74208 107.624423 l
237.557347 106.919813 l
240.964981 106.40954 l
244.372615 105.655342 l
247.780248 104.553709 l
251.187882 102.803952 l
254.595515 101.405235 l
261.410782 97.878883 l
264.818416 96.599866 l
268.22605 94.627196 l
271.633683 93.896341 l
275.041317 93.636758 l
288.671851 93.01921 l
295.487118 92.627373 l
298.894752 92.262 l
305.710019 91.274812 l
309.117653 90.153278 l
312.525286 88.348222 l
315.93292 87.661996 l
319.340553 86.050448 l
322.748187 85.116173 l
326.155821 83.752477 l
332.971088 80.304881 l
336.378721 79.384441 l
339.786355 78.638307 l
343.193989 75.708273 l
346.601622 73.481866 l
350.009256 72.027666 l
353.416889 71.326999 l
356.824523 69.345973 l
360.232156 68.199204 l
373.862691 65.494462 l
384.085592 63.274015 l
394.308492 60.865924 l
404.531393 58.245355 l
411.34666 56.48359 l
414.754294 55.685208 l
418.161927 55.112884 l
421.569561 55.297421 l
424.977195 55.800784 l
428.384828 56.673101 l
435.200095 57.002959 l
438.607729 56.723785 l
442.015363 56.14517 l
448.83063 54.605759 l
452.238263 53.686653 l
459.053531 52.314294 l
462.461164 51.564703 l
472.684065 48.530222 l
476.091698 47.315802 l
482.906966 45.29818 l
486.314599 43.998911 l
493.129866 41.81689 l
496.5375 40.520481 l
496.5375 40.520481 l
stroke
grestore
0.800 setlinewidth
0 setlinejoin
[] 0 setdash
0.000 setgray
gsave
50.1375 37.54375 m
50.1375 120.265489 l
stroke
grestore
gsave
496.5375 37.54375 m
496.5375 120.265489 l
stroke
grestore
gsave
50.1375 37.54375 m
496.5375 37.54375 l
stroke
grestore
gsave
50.1375 120.265489 m
496.5375 120.265489 l
stroke
grestore
/DejaVuSans findfont
12.000 scalefont
setfont
gsave
259.681250 126.265489 translate
0.000000 rotate
0.000000 0.000000 m /six glyphshow
7.634766 0.000000 m /space glyphshow
11.449219 0.000000 m /d glyphshow
19.066406 0.000000 m /B glyphshow
grestore
1.000 setlinewidth
0 setlinecap
0.800 setgray
gsave
385.521875 82.921739 m
489.5375 82.921739 l
490.870833 82.921739 491.5375 83.588406 491.5375 84.921739 c
491.5375 113.265489 l
491.5375 114.598822 490.870833 115.265489 489.5375 115.265489 c
385.521875 115.265489 l
384.188542 115.265489 383.521875 114.598822 383.521875 113.265489 c
383.521875 84.921739 l
383.521875 83.588406 384.188542 82.921739 385.521875 82.921739 c
cl
gsave
1.000 setgray
fill
grestore
stroke
grestore
1.500 setlinewidth
1 setlinejoin
2 setlinecap
[] 0 setdash
0.122 0.467 0.706 setrgbcolor
gsave
387.521875 107.171739 m
407.521875 107.171739 l
stroke
grestore
0.000 setgray
/DejaVuSans findfont
10.000 scalefont
setfont
gsave
415.521875 103.671739 translate
0.000000 rotate
0.000000 0.000000 m /t glyphshow
3.920898 0.000000 m /a glyphshow
10.048828 0.000000 m /r glyphshow
14.160156 0.000000 m /g glyphshow
20.507812 0.000000 m /e glyphshow
26.660156 0.000000 m /t glyphshow
30.581055 0.000000 m /space glyphshow
33.759766 0.000000 m /a glyphshow
39.887695 0.000000 m /b glyphshow
46.235352 0.000000 m /s glyphshow
51.445312 0.000000 m /e glyphshow
57.597656 0.000000 m /n glyphshow
63.935547 0.000000 m /t glyphshow
grestore
1.000 0.498 0.055 setrgbcolor
gsave
387.521875 92.499864 m
407.521875 92.499864 l
stroke
grestore
0.000 setgray
gsave
415.521875 88.999864 translate
0.000000 rotate
0.000000 0.000000 m /t glyphshow
3.920898 0.000000 m /a glyphshow
10.048828 0.000000 m /r glyphshow
14.160156 0.000000 m /g glyphshow
20.507812 0.000000 m /e glyphshow
26.660156 0.000000 m /t glyphshow
30.581055 0.000000 m /space glyphshow
33.759766 0.000000 m /p glyphshow
40.107422 0.000000 m /r glyphshow
44.218750 0.000000 m /e glyphshow
50.371094 0.000000 m /s glyphshow
55.581055 0.000000 m /e glyphshow
61.733398 0.000000 m /n glyphshow
68.071289 0.000000 m /t glyphshow
grestore

end
showpage
